[
  {
    "selection": "Frank Sinatra's middle name was Albert.",
    "result": {
      "result": "correct",
      "explanation": "The quote confirms that Frank Sinatra's middle name was Albert.",
      "article": {
        "url": "http://en.wikipedia.org/?curid=11181",
        "page_url": "http://en.wikipedia.org/?curid=11181",
        "section_url": "http://en.wikipedia.org/?curid=11181#Lead_Section",
        "title": "Frank Sinatra",
        "section": "Lead Section",
        "snippet": "Francis Albert Sinatra was born on December 12, 1915, in a tenement at 415 Monroe Street in Hoboken, New Jersey,",
        "references": 584,
        "contributors": 5152,
        "last_updated": "2024-03-11 22:45"
      }
    },
    "error": null
  },
  {
    "selection": "Star Wars: The Force Awakens received only praise.",
    "result": {
      "result": "incorrect",
      "explanation": "There are sources indicating criticism towards 'The Force Awakens' from George Lucas, the creator of Star Wars.",
      "article": {
        "url": "http://en.wikipedia.org/?curid=14723194",
        "page_url": "http://en.wikipedia.org/?curid=14723194",
        "section_url": "http://en.wikipedia.org/?curid=14723194#Critical_response",
        "title": "Star Wars: The Force Awakens",
        "section": "Critical response",
        "snippet": ". Lucas described the previous Star Wars films as his \"children\" and criticized the \"retro feel\" of The Force Awakens, saying: \"I worked very hard to make [my films] completely different, with different planets, with different spaceships\u2014you know, to make it new.\" Lucas also likened Disney to \"white slavers\", which drew some criticism; he subsequently apologized.",
        "references": 712,
        "contributors": 2496,
        "last_updated": "2024-03-11 13:38"
      }
    },
    "error": null
  },
  {
    "selection": "Samuel L. Jackson was not in the M. Night Shyamalan film Unbreakable.",
    "result": {
      "result": "incorrect",
      "explanation": "Samuel L. Jackson did appear in the M. Night Shyamalan film Unbreakable as Elijah Price/Mr. Glass.",
      "article": {
        "url": "http://en.wikipedia.org/?curid=32252",
        "page_url": "http://en.wikipedia.org/?curid=32252",
        "section_url": "http://en.wikipedia.org/?curid=32252#Cast",
        "title": "Unbreakable (film)",
        "section": "Cast",
        "snippet": "Samuel L. Jackson as Elijah Price/Mr. Glass, a comic book theorist, and deranged domestic terrorist with brittle bone disease",
        "references": 65,
        "contributors": 1358,
        "last_updated": "2024-03-16 07:17"
      }
    },
    "error": null
  },
  {
    "selection": "George W. Bush was a president.",
    "result": {
      "result": "correct",
      "explanation": "The quote confirms that George W. Bush won the presidential election and became the President of the United States.",
      "article": {
        "url": "http://en.wikipedia.org/?curid=183895",
        "page_url": "http://en.wikipedia.org/?curid=183895",
        "section_url": "http://en.wikipedia.org/?curid=183895#Lead_Section",
        "title": "Presidency of George W. Bush",
        "section": "Lead Section",
        "snippet": "Bush won the presidential election with 271 electoral votes compared to Gore's 266.",
        "references": 169,
        "contributors": 1343,
        "last_updated": "2024-03-16 23:34"
      }
    },
    "error": null
  },
  {
    "selection": "FC Barcelona was formed in 1899.",
    "result": {
      "result": "correct",
      "explanation": "The quote confirms that FC Barcelona was indeed formed in 1899.",
      "article": {
        "url": "http://en.wikipedia.org/?curid=21221470",
        "page_url": "http://en.wikipedia.org/?curid=21221470",
        "section_url": "http://en.wikipedia.org/?curid=21221470#Lead_Section",
        "title": "History of FC Barcelona",
        "section": "Lead Section",
        "snippet": "lona.\n\nOn 22 October 1899, Joan Gamper placed an advertisement in Los Deportes declaring his wish to form a football club; a positive response resulted in a meeting at the Gimnasio Sol\u00e9 on 29 November 1899. Eleven players attended: Walter Wild (the first director of the club), Luis de Oss\u00f3, Bartomeu Terradas, Otto Kunzle, Otto Maier, Enric Ducal, Pere Cabot, Josep Llobet, John Parsons, and William Parsons. As a result, Football Club Barcelona was born.B",
        "references": 280,
        "contributors": 215,
        "last_updated": "2023-11-16 09:03"
      }
    },
    "error": null
  },
  {
    "selection": "Snooki & Jwoww was renewed by MTV.",
    "result": {
      "result": "correct",
      "explanation": "The statement is correct as MTV renewed Snooki & Jwoww for a third season.",
      "article": {
        "url": "http://en.wikipedia.org/?curid=34909431",
        "page_url": "http://en.wikipedia.org/?curid=34909431",
        "section_url": "http://en.wikipedia.org/?curid=34909431#Production",
        "title": "Snooki & Jwoww",
        "section": "Production",
        "snippet": "or Third Season + MTV Greenlights 'Scream' Pilot\". Zap2it. which premiered on October 22, 2013, returning to the original 30-minute episode format.",
        "references": 53,
        "contributors": 197,
        "last_updated": "2024-02-21 21:31"
      }
    },
    "error": null
  },
  {
    "selection": "Katie Holmes refused to ever become an actress.",
    "result": {
      "result": "incorrect",
      "explanation": "There is no information in the provided text passages to support the claim that Katie Holmes refused to ever become an actress.",
      "article": {
        "url": "http://en.wikipedia.org/?curid=3991193",
        "page_url": "http://en.wikipedia.org/?curid=3991193",
        "section_url": "http://en.wikipedia.org/?curid=3991193#Personal_life",
        "title": "Katie Holmes",
        "section": "Personal life",
        "snippet": "Holmes dated her Dawson's Creek co-star Joshua Jackson early in the show's run. She said Jackson was her first love.",
        "references": 193,
        "contributors": 2805,
        "last_updated": "2024-03-15 20:13"
      }
    },
    "error": null
  },
  {
    "selection": "Alicia Silverstone was in an American film.",
    "result": {
      "result": "correct",
      "explanation": "The quote confirms that Alicia Silverstone was in an American film, 'Clueless', which was a hit and critical darling in 1995.",
      "article": {
        "url": "http://en.wikipedia.org/?curid=69930",
        "page_url": "http://en.wikipedia.org/?curid=69930",
        "section_url": "http://en.wikipedia.org/?curid=69930#1990s",
        "title": "Alicia Silverstone",
        "section": "1990s",
        "snippet": "After seeing Silverstone in the three videos, filmmaker Amy Heckerling decided to cast her in the coming-of-age comedy Clueless, in the role of Cher Horowitz, a sweet but spoiled girl living in Beverly Hills. Clueless became a hit and critical darling during the summer of 1995",
        "references": 190,
        "contributors": 1658,
        "last_updated": "2024-03-17 08:15"
      }
    },
    "error": null
  },
  {
    "selection": "Planet of the Apes' filming took place between May 21 and August 10, 1967.",
    "result": {
      "result": "incorrect",
      "explanation": "The filming for the Planet of the Apes did not take place between May 21 and August 10, 1967, as the test scene was shot on March 8, 1966.",
      "article": {
        "url": "http://en.wikipedia.org/?curid=18618306",
        "page_url": "http://en.wikipedia.org/?curid=18618306",
        "section_url": "http://en.wikipedia.org/?curid=18618306#Origins",
        "title": "Planet of the Apes (1968 film)",
        "section": "Origins",
        "snippet": "To convince the Fox Studio that a Planet of the Apes film could be made, the producers shot a brief test scene from a Rod Serling draft of the script, using early versions of the ape makeup, on March 8, 1966.",
        "references": 99,
        "contributors": 1452,
        "last_updated": "2024-03-10 18:43"
      }
    },
    "error": null
  },
  {
    "selection": "Gillian Anderson was born in Somalia to Somali parents.",
    "result": {
      "result": "incorrect",
      "explanation": "The claim is incorrect as Gillian Anderson was born in Chicago, Illinois, to American parents.",
      "article": {
        "url": "http://en.wikipedia.org/?curid=42238",
        "page_url": "http://en.wikipedia.org/?curid=42238",
        "section_url": "http://en.wikipedia.org/?curid=42238#Lead_Section",
        "title": "Gillian Anderson",
        "section": "Lead Section",
        "snippet": "e\nAnderson was born in Chicago, Illinois, the daughter of Rosemary \"Posie\" Alyce (n\u00e9e Lane), a computer analyst, and later vice president of Neurofibromatosis Inc., the neurofibromatosis support group of West Michigan, and Homer Edward \"Ed\" Anderson III, who owned a film post-production company.",
        "references": 304,
        "contributors": 2018,
        "last_updated": "2024-03-17 19:13"
      }
    },
    "error": null
  },
  {
    "selection": "Red Hot Chili Peppers were originally named Tony Flow and the Miraculously Majestic Masters of Mayhem.",
    "result": {
      "result": "incorrect",
      "explanation": "The selected quote does not support the claim about the original name of the Red Hot Chili Peppers.",
      "article": {
        "url": "http://en.wikipedia.org/?curid=26589",
        "page_url": "http://en.wikipedia.org/?curid=26589",
        "section_url": "http://en.wikipedia.org/?curid=26589#Lead_Section",
        "title": "Red Hot Chili Peppers",
        "section": "Lead Section",
        "snippet": "During the tour, continuing musical and lifestyle tension between Kiedis and Sherman complicated the transition between concert and daily band life. Sherman was fired in February 1985.",
        "references": 356,
        "contributors": 9142,
        "last_updated": "2024-03-13 03:12"
      }
    },
    "error": null
  },
  {
    "selection": "Scarlett Johansson is an actress.",
    "result": {
      "result": "correct",
      "explanation": "The quote confirms that Scarlett Johansson is indeed an actress.",
      "article": {
        "url": "http://en.wikipedia.org/?curid=20913246",
        "page_url": "http://en.wikipedia.org/?curid=20913246",
        "section_url": "http://en.wikipedia.org/?curid=20913246#Lead_Section",
        "title": "Scarlett Johansson",
        "section": "Lead Section",
        "snippet": "Scarlett Ingrid Johansson was born on November 22, 1984, in the Manhattan borough of New York City.",
        "references": 663,
        "contributors": 3944,
        "last_updated": "2024-03-15 03:01"
      }
    },
    "error": null
  },
  {
    "selection": "Italy experienced economic growth between 1494 to 1559.",
    "result": {
      "result": "incorrect",
      "explanation": "The economic growth mentioned in the text is related to the period after World War I and the rise of the Fascist Party in the 1920s, not between 1494 to 1559.",
      "article": {
        "url": "http://en.wikipedia.org/?curid=26294015",
        "page_url": "http://en.wikipedia.org/?curid=26294015",
        "section_url": "http://en.wikipedia.org/?curid=26294015#Fascist_Italy",
        "title": "Economic history of Italy",
        "section": "Fascist Italy",
        "snippet": "Italy had emerged from World War I in a poor and weakened condition. The National Fascist Party of Benito Mussolini came to power in Italy in 1922, at the end of a period of social unrest. During the first four years of the new regime, from 1922 to 1925, the Fascist had a generally laissez-faire economic policy: they initially reduced taxes, regulations and trade restrictions on the whole.",
        "references": 96,
        "contributors": 134,
        "last_updated": "2024-02-23 03:52"
      }
    },
    "error": null
  },
  {
    "selection": "Ronald Reagan was a president.",
    "result": {
      "result": "correct",
      "explanation": "The quote confirms that Ronald Reagan was a president, as he won a reelection with a significant majority of votes and electoral votes.",
      "article": {
        "url": "http://en.wikipedia.org/?curid=25433",
        "page_url": "http://en.wikipedia.org/?curid=25433",
        "section_url": "http://en.wikipedia.org/?curid=25433#1984_election",
        "title": "Ronald Reagan",
        "section": "1984 election",
        "snippet": "Reagan won a landslide reelection victory with 59 percent of the popular vote and 525 electoral votes from 49 states.",
        "references": 306,
        "contributors": 6823,
        "last_updated": "2024-03-15 17:06"
      }
    },
    "error": null
  },
  {
    "selection": "Jacqueline Kennedy Onassis was famous.",
    "result": {
      "result": "correct",
      "explanation": "The quote highlights Jacqueline Kennedy's fame and respect in France, supporting the claim that she was famous.",
      "article": {
        "url": "http://en.wikipedia.org/?curid=64372",
        "page_url": "http://en.wikipedia.org/?curid=64372",
        "section_url": "http://en.wikipedia.org/?curid=64372#As_first_lady",
        "title": "Jacqueline Kennedy Onassis",
        "section": "As first lady",
        "snippet": "Jacqueline Kennedy's language skills and cultural knowledge were highly respected by the French people, and her visit to France with President Kennedy in 1961 was seen as a great success.",
        "references": 319,
        "contributors": 3205,
        "last_updated": "2024-03-15 13:06"
      }
    },
    "error": null
  },
  {
    "selection": "Inhumans is developed only for ABC.",
    "result": {
      "result": "incorrect",
      "explanation": "The production of Inhumans involved ABC, Marvel, and IMAX, not exclusively ABC.",
      "article": {
        "url": "http://en.wikipedia.org/?curid=52281037",
        "page_url": "http://en.wikipedia.org/?curid=52281037",
        "section_url": "http://en.wikipedia.org/?curid=52281037#Filming",
        "title": "Inhumans (TV series)",
        "section": "Filming",
        "snippet": "ABC, Marvel and IMAX chose to produce Inhumans in Hawaii due to the state's tax incentives for filming, and the strong relationship that Disney and ABC have with the state from previous projects.",
        "references": 280,
        "contributors": 395,
        "last_updated": "2024-03-05 23:34"
      }
    },
    "error": null
  },
  {
    "selection": "Pixar uses CGI animation to create films.",
    "result": {
      "result": "correct",
      "explanation": "The quote confirms that Pixar uses CGI animation to create films.",
      "article": {
        "url": "http://en.wikipedia.org/?curid=920613",
        "page_url": "http://en.wikipedia.org/?curid=920613",
        "section_url": "http://en.wikipedia.org/?curid=920613#Animation",
        "title": "Cars (film)",
        "section": "Animation",
        "snippet": "For the cars themselves, Lasseter also visited the design studios of the Big Three Detroit automakers, particularly J Mays of Ford Motor Company. Lasseter learned how real cars were designed.",
        "references": 181,
        "contributors": 4403,
        "last_updated": "2024-03-09 03:46"
      }
    },
    "error": null
  },
  {
    "selection": "Laurence Olivier received American film awards.",
    "result": {
      "result": "correct",
      "explanation": "The quote mentions Laurence Olivier's involvement in films for which he received awards, confirming that he received American film awards.",
      "article": {
        "url": "http://en.wikipedia.org/?curid=43675",
        "page_url": "http://en.wikipedia.org/?curid=43675",
        "section_url": "http://en.wikipedia.org/?curid=43675#Lead_Section",
        "title": "Laurence Olivier",
        "section": "Lead Section",
        "snippet": "In 1969 Olivier appeared in two war films, portraying military leaders. He played Field Marshal French in the First World War film Oh! What a Lovely War, for which he won another BAFTA award, followed by Air Chief Marshal Hugh Dowding in Battle of Britain.",
        "references": 151,
        "contributors": 1404,
        "last_updated": "2024-03-07 22:24"
      }
    },
    "error": null
  },
  {
    "selection": "Bill Clinton was never acquitted by the U.S. Senate.",
    "result": {
      "result": "incorrect",
      "explanation": "Bill Clinton faced a Senate impeachment trial, but he was acquitted by the Senate in 1999.",
      "article": {
        "url": "http://en.wikipedia.org/?curid=51791581",
        "page_url": "http://en.wikipedia.org/?curid=51791581",
        "section_url": "http://en.wikipedia.org/?curid=51791581#Lead_Section",
        "title": "Impeachment trial of Bill Clinton",
        "section": "Lead Section",
        "snippet": "Clinton was the second U.S. president to face a Senate impeachment trial, after Andrew Johnson.",
        "references": 106,
        "contributors": 31,
        "last_updated": "2024-03-07 23:43"
      }
    },
    "error": null
  },
  {
    "selection": "A Nightmare on Elm Street stars Katie Cassidy and Rooney Mara.",
    "result": {
      "result": "incorrect",
      "explanation": "The claim is incorrect as the text mentions actors like Johnny Depp and Heather Langenkamp, not Katie Cassidy and Rooney Mara.",
      "article": {
        "url": "http://en.wikipedia.org/?curid=3028191",
        "page_url": "http://en.wikipedia.org/?curid=3028191",
        "section_url": "http://en.wikipedia.org/?curid=3028191#Cast",
        "title": "A Nightmare on Elm Street",
        "section": "Cast",
        "snippet": "The cast of A Nightmare on Elm Street included a crew of veteran actors such as Robert Englund and John Saxon and several aspiring young actors like Johnny Depp and Heather Langenkamp.",
        "references": 149,
        "contributors": 1840,
        "last_updated": "2024-02-17 04:56"
      }
    },
    "error": null
  },
  {
    "selection": "Paradise is an EP.",
    "result": {
      "result": "correct",
      "explanation": "The quote confirms that 'Paradise' was released as a stand-alone CD or vinyl EP.",
      "article": {
        "url": "http://en.wikipedia.org/?curid=37179919",
        "page_url": "http://en.wikipedia.org/?curid=37179919",
        "section_url": "http://en.wikipedia.org/?curid=37179919#Lead_Section",
        "title": "Paradise (Lana Del Rey EP)",
        "section": "Lead Section",
        "snippet": "Paradise was released on November 12, 2012 in the UK and one day later in the US. The prior album's re-release, titled Born to Die: The Paradise Edition, was available for pre-order offering an immediate download of \"Burning Desire\" in some countries. The nine tracks were issued as a stand-alone CD or vinyl EP titled Paradise,",
        "references": 96,
        "contributors": 433,
        "last_updated": "2024-03-18 21:43"
      }
    },
    "error": null
  },
  {
    "selection": "Denial premiered at the Toronto International Film Festival in 1997.",
    "result": {
      "result": "incorrect",
      "explanation": "There is no mention of the film Denial premiering at the Toronto International Film Festival in 1997.",
      "article": {
        "url": "http://en.wikipedia.org/?curid=178751",
        "page_url": "http://en.wikipedia.org/?curid=178751",
        "section_url": "http://en.wikipedia.org/?curid=178751#Notable_film_premieres",
        "title": "Toronto International Film Festival",
        "section": "Notable film premieres",
        "snippet": "Films such as American Beauty, Ray, Mr. Nobody, 127 Hours, Black Swan, Disobedience, The Five Obstructions, Singapore Sling, I Am Love and The Fabelmans have premiered at TIFF.",
        "references": 113,
        "contributors": 488,
        "last_updated": "2024-03-11 13:29"
      }
    },
    "error": null
  },
  {
    "selection": "Cyndi Lauper released a debut solo album.",
    "result": {
      "result": "correct",
      "explanation": "The quote confirms that Cyndi Lauper released her debut solo album titled 'She's So Unusual' on October 14, 1983.",
      "article": {
        "url": "http://en.wikipedia.org/?curid=85226",
        "page_url": "http://en.wikipedia.org/?curid=85226",
        "section_url": "http://en.wikipedia.org/?curid=85226#Lead_Section",
        "title": "Cyndi Lauper",
        "section": "Lead Section",
        "snippet": "On October 14, 1983, Lauper released her first solo album, She's So Unusual.",
        "references": 300,
        "contributors": 2816,
        "last_updated": "2024-03-10 13:14"
      }
    },
    "error": null
  },
  {
    "selection": "The Coen brothers have only directed Barton Fink.",
    "result": {
      "result": "incorrect",
      "explanation": "The Coen brothers have directed multiple films, not just Barton Fink.",
      "article": {
        "url": "http://en.wikipedia.org/?curid=43820515",
        "page_url": "http://en.wikipedia.org/?curid=43820515",
        "section_url": "http://en.wikipedia.org/?curid=43820515#Lead_Section",
        "title": "Coen brothers filmography",
        "section": "Lead Section",
        "snippet": "1991  Barton Fink",
        "references": 7,
        "contributors": 119,
        "last_updated": "2024-03-11 09:04"
      }
    },
    "error": null
  },
  {
    "selection": "Frank Zappa's debut album was released in 1966.",
    "result": {
      "result": "correct",
      "explanation": "The quote confirms that Frank Zappa's debut album was released in 1966.",
      "article": {
        "url": "http://en.wikipedia.org/?curid=655747",
        "page_url": "http://en.wikipedia.org/?curid=655747",
        "section_url": "http://en.wikipedia.org/?curid=655747#Lead_Section",
        "title": "Freak Out!",
        "section": "Lead Section",
        "snippet": "The group moved to Los Angeles in early 1965 after Zappa got them a management contract with Herb Cohen. They gained steady work at clubs along the Sunset Strip. MGM staff producer Tom Wilson offered the band a record deal with the Verve Records division in early 1966.",
        "references": 42,
        "contributors": 425,
        "last_updated": "2024-03-17 17:34"
      }
    },
    "error": null
  },
  {
    "selection": "Hungary was only founded by Barack Obama.",
    "result": {
      "result": "no_result",
      "explanation": "No matching citations found."
    },
    "error": null
  },
  {
    "selection": "Blackhat stars an actor.",
    "result": {
      "result": "partially_correct",
      "explanation": "The statement is partially correct as it mentions the casting of an actor, but does not specify the name of the actor, Chris Hemsworth, who starred in the film.",
      "article": {
        "url": "http://en.wikipedia.org/?curid=39384134",
        "page_url": "http://en.wikipedia.org/?curid=39384134",
        "section_url": "http://en.wikipedia.org/?curid=39384134#Critical_response",
        "title": "Blackhat (film)",
        "section": "Critical response",
        "snippet": "For many critics, a significant issue of the film was the casting of Chris Hemsworth as a hacker.",
        "references": 78,
        "contributors": 432,
        "last_updated": "2024-03-15 20:47"
      }
    },
    "error": null
  },
  {
    "selection": "The Houston Rockets have won four Western Conference titles.",
    "result": {
      "result": "incorrect",
      "explanation": "The Houston Rockets have advanced to the NBA Finals four times, not won four Western Conference titles.",
      "article": {
        "url": "http://en.wikipedia.org/?curid=72885",
        "page_url": "http://en.wikipedia.org/?curid=72885",
        "section_url": "http://en.wikipedia.org/?curid=72885#Lead_Section",
        "title": "Houston Rockets",
        "section": "Lead Section",
        "snippet": "o the 1980\u201381 season, the arrival of the Dallas Mavericks led to an NBA realignment that sent the Rockets back to the Western Conference. Houston qualified for the playoffs only in the final game of the season with a 40\u201342 record. The postseason had the Rockets beat the Lakers, in-state rivals San Antonio Spurs, and the equally underdog Kansas City Kings to become only the second team in NBA history (after the 1959 Minneapolis Lakers) to have advanced to the Finals after achieving a losing record in the regular season.",
        "references": 314,
        "contributors": 2495,
        "last_updated": "2024-03-08 00:06"
      }
    },
    "error": null
  },
  {
    "selection": "United Kingdom is a developed country.",
    "result": {
      "result": "correct",
      "explanation": "The United Kingdom's well-developed military, managed by the Ministry of Defence, reflects its status as a developed country.",
      "article": {
        "url": "http://en.wikipedia.org/?curid=31717",
        "page_url": "http://en.wikipedia.org/?curid=31717",
        "section_url": "http://en.wikipedia.org/?curid=31717#Military",
        "title": "United Kingdom",
        "section": "Military",
        "snippet": "The armed forces of the United Kingdom are managed by the Ministry of Defence and controlled by the Defence Council, chaired by the Secretary of State for Defence. The Commander-in-Chief is the British monarch, to whom members of the forces swear an oath of allegiance. The Armed Forces are charged with protecting the UK and its overseas territories, promoting the UK's global security interests and supporting international peacekeeping efforts.",
        "references": 787,
        "contributors": 7791,
        "last_updated": "2024-03-17 01:51"
      }
    },
    "error": null
  },
  {
    "selection": "Margot Kidder won an award in the 2010s.",
    "result": {
      "result": "correct",
      "explanation": "The statement is correct as Margot Kidder won an Emmy Award in 2015.",
      "article": {
        "url": "http://en.wikipedia.org/?curid=1255496",
        "page_url": "http://en.wikipedia.org/?curid=1255496",
        "section_url": "http://en.wikipedia.org/?curid=1255496#Career",
        "title": "Margot Kidder",
        "section": "Career",
        "snippet": "In 2015, Kidder won an Emmy Award for Outstanding Performer in Children's Programming for her performance in R.L. Stine's The Haunting Hour''.",
        "references": 177,
        "contributors": 838,
        "last_updated": "2024-03-05 10:48"
      }
    },
    "error": null
  },
  {
    "selection": "Syria includes Jewish people.",
    "result": {
      "result": "correct",
      "explanation": "The text clearly states that there have been Jews in Syria since ancient times.",
      "article": {
        "url": "http://en.wikipedia.org/?curid=5531820",
        "page_url": "http://en.wikipedia.org/?curid=5531820",
        "section_url": "http://en.wikipedia.org/?curid=5531820#Lead_Section",
        "title": "Syrian Jews",
        "section": "Lead Section",
        "snippet": "There have been Jews in Syria since ancient times: according to the community's tradition, since the time of King David, and certainly since early Roman times.",
        "references": 42,
        "contributors": 900,
        "last_updated": "2024-03-15 20:51"
      }
    },
    "error": null
  },
  {
    "selection": "Serena Williams competes in women's singles and doubles.",
    "result": {
      "result": "correct",
      "explanation": "The provided text clearly states Serena Williams' participation in women's doubles tournaments, confirming that she competes in both women's singles and doubles.",
      "article": {
        "url": "http://en.wikipedia.org/?curid=22639679",
        "page_url": "http://en.wikipedia.org/?curid=22639679",
        "section_url": "http://en.wikipedia.org/?curid=22639679#Lead_Section",
        "title": "Venus Williams career statistics",
        "section": "Lead Section",
        "snippet": "d round after Venus withdrew.\n\nDoubles\nTournament19971998199920002001200220032004200520062007200820092010201120122013201420152016201720182019202020212022SRW\u2013LGrand Slam tournamentsAustralian OpenA3RSFAWAWAAAAQFWWAAQFAAAAAAAAA4 / 836\u20134 French OpenAAWAAAAAAAAA3RWAA1RAA3RA3RAA1RA2 / 717\u20134WimbledonA1RAW3RW3RAAA2RWWQFAWA2RAWAAANHAA6 / 1245\u20133US Open1RAWSF3RAAAAAAAW AA3RSFQFAAAAAAA1R2 / 927\u20136Win\u2013loss0\u201312\u2013116\u2013110\u2013010\u201316\u201308\u201310\u201300\u201300\u201301\u201309\u2013120\u2013114\u201310\u201308\u201317\u201334\u201320\u201308\u201310\u201302\u201310\u201300\u201300\u201310\u2013114 / 36125\u201317Year-end championshipWTA FinalsDNQAdid not qualifySFAdid not qualifyNHDNQ0 / 10\u20131National representationOlympicsnot heldGnot held1Rnot heldGnot heldGnot held1Rnot heldANH3 / 515\u20132Fed CupAAWAAAFQFSFASFAAAAAPOAPOPOAFAAAA1 / 54\u20133Tier I, Premier Mandatory & Premier 5 tournamentsDubai / Qatar Opennot heldTier IIITier II2Rnot heldAAAAAAAAAAAA0 / 11\u20131Indian Wells OpenQFQFSFAAABoycott of BNP Paribas Open by Venus and Serena WilliamsAAAAANHAA0 / 37\u20133Miami OpenA1R3RAAAAAAAAAAAAAAAAAAAANHAA0 / 21\u20131Madrid Opennot heldAWAAAAAAAAANHAA1 / 14\u20130Italian OpenASFAAAAAAAAAAAAAAAAA1RA2RAAAA0 / 34\u20132China Opennot heldTier IVTier IIAAAA1RAAAAAAnot held 0 / 10\u20131Zurich OpenQ3WAAAAAAAAATIInot held1 / 14\u20130Kremlin CupAQFAAAAAAAAAPremier0 / 11\u20130Career statistics19971998199920002001200220032004200520062007200820092010201120122013201420152016201720182019202020212022CareerTitles0232111000024302000100000022Finals0242111000024302000100000023Year-end ranking12136105454",
        "references": 26,
        "contributors": 438,
        "last_updated": "2024-03-12 13:06"
      }
    },
    "error": null
  },
  {
    "selection": "Muhammad is significant to religion.",
    "result": {
      "result": "correct",
      "explanation": "The quote highlights the significance of Muhammad in Islam as the main aspect of the faith.",
      "article": {
        "url": "http://en.wikipedia.org/?curid=18934",
        "page_url": "http://en.wikipedia.org/?curid=18934",
        "section_url": "http://en.wikipedia.org/?curid=18934#Islamic_tradition",
        "title": "Muhammad",
        "section": "Islamic tradition",
        "snippet": "he belief in Muhammad's prophethood is the main aspect of the Islamic faith. Every Muslim proclaims in the Shahadah: \"I testify that there is no god but God, and I testify that Muhammad is a Messenger of God\".",
        "references": 218,
        "contributors": 4983,
        "last_updated": "2024-03-12 08:04"
      }
    },
    "error": null
  },
  {
    "selection": "Leonardo da Vinci is a painter.",
    "result": {
      "result": "correct",
      "explanation": "The quote clearly states that Leonardo da Vinci's fame primarily rested on his achievements as a painter.",
      "article": {
        "url": "http://en.wikipedia.org/?curid=18079",
        "page_url": "http://en.wikipedia.org/?curid=18079",
        "section_url": "http://en.wikipedia.org/?curid=18079#Paintings",
        "title": "Leonardo da Vinci",
        "section": "Paintings",
        "snippet": "Despite the recent awareness and admiration of Leonardo as a scientist and inventor, for the better part of four hundred years his fame rested on his achievements as a painter.",
        "references": 201,
        "contributors": 4003,
        "last_updated": "2024-03-17 09:18"
      }
    },
    "error": null
  },
  {
    "selection": "Laura Linney was in a movie.",
    "result": {
      "result": "correct",
      "explanation": "The quote confirms that Laura Linney starred in the movie 'You Can Count on Me' in 2000.",
      "article": {
        "url": "http://en.wikipedia.org/?curid=375670",
        "page_url": "http://en.wikipedia.org/?curid=375670",
        "section_url": "http://en.wikipedia.org/?curid=375670#2000s",
        "title": "Laura Linney",
        "section": "2000s",
        "snippet": "In 2000, she starred in Kenneth Lonergan's film You Can Count on Me alongside Mark Ruffalo and Matthew Broderick. The film was met with positive reviews from critics with an approval rating of 95% on Rotten Tomatoes, the consensus reading, \"You Can Count on Me may look like it belongs on the small screen, but the movie surprises with its simple yet affecting story. Beautifully acted and crafted, the movie will simply draw you in.\" Linney was nominated for an Academy Award for Best Actress for her performance as the small town single mother Sammy Prescott.",
        "references": 140,
        "contributors": 787,
        "last_updated": "2024-02-05 17:53"
      }
    },
    "error": null
  },
  {
    "selection": "Alicia Silverstone appeared in a music video.",
    "result": {
      "result": "correct",
      "explanation": "The quote confirms that Alicia Silverstone appeared in a music video for Aerosmith.",
      "article": {
        "url": "http://en.wikipedia.org/?curid=69930",
        "page_url": "http://en.wikipedia.org/?curid=69930",
        "section_url": "http://en.wikipedia.org/?curid=69930#1990s",
        "title": "Alicia Silverstone",
        "section": "1990s",
        "snippet": "After seeing her in The Crush, Marty Callner decided Silverstone would be perfect for a role in a music video he was directing for Aerosmith, called \"Cryin'.\"",
        "references": 190,
        "contributors": 1658,
        "last_updated": "2024-03-17 08:15"
      }
    },
    "error": null
  },
  {
    "selection": "Dylan O'Brien is not a film actor.",
    "result": {
      "result": "incorrect",
      "explanation": "There are multiple sources confirming Dylan O'Brien's involvement in various films, such as Deepwater Horizon, American Assassin, and Bumblebee.",
      "article": {
        "url": "http://en.wikipedia.org/?curid=32010836",
        "page_url": "http://en.wikipedia.org/?curid=32010836",
        "section_url": "http://en.wikipedia.org/?curid=32010836#Career",
        "title": "Dylan O'Brien",
        "section": "Career",
        "snippet": "In 2016, he appeared in the disaster thriller-drama Deepwater Horizon, based on the 2010 Deepwater Horizon explosion. He starred in 2017's American Assassin, an action-thriller where he played titular character Mitch Rapp;Wein, Dick (July 29, 2016). \"CBS Continues to Chart the Future\". Update, Vol. 18, No. 878, CBS Corporation. p. 11. and voiced the CGI title character in the Transformers spin-off film Bumblebee in 2018.",
        "references": 91,
        "contributors": 1214,
        "last_updated": "2024-03-07 20:14"
      }
    },
    "error": null
  },
  {
    "selection": "Adele has an album called 25.",
    "result": {
      "result": "correct",
      "explanation": "The quote confirms that Adele's album was indeed titled 25.",
      "article": {
        "url": "http://en.wikipedia.org/?curid=44878113",
        "page_url": "http://en.wikipedia.org/?curid=44878113",
        "section_url": "http://en.wikipedia.org/?curid=44878113#Lead_Section",
        "title": "25 (Adele album)",
        "section": "Lead Section",
        "snippet": "Prior to the album's official announcement, music journalists and fans speculated that the album would be titled 25 continuing the age theme from Adele's previous releases 19 and 21.",
        "references": 501,
        "contributors": 1196,
        "last_updated": "2024-03-11 22:04"
      }
    },
    "error": null
  },
  {
    "selection": "Audrey Hepburn starred in a movie.",
    "result": {
      "result": "correct",
      "explanation": "The quote mentions Audrey Hepburn's role in the film 'Roman Holiday'.",
      "article": {
        "url": "http://en.wikipedia.org/?curid=24585486",
        "page_url": "http://en.wikipedia.org/?curid=24585486",
        "section_url": "http://en.wikipedia.org/?curid=24585486#Lead_Section",
        "title": "Audrey Hepburn on screen and stage",
        "section": "Lead Section",
        "snippet": "thumb|alt=A still of Hepburn in character as Princess Ann in the film Roman Holiday|upright|In Roman Holiday (1953)",
        "references": 97,
        "contributors": 83,
        "last_updated": "2024-01-23 19:57"
      }
    },
    "error": null
  },
  {
    "selection": "Asia contains places.",
    "result": {
      "result": "partially_correct",
      "explanation": "The quote acknowledges that Asia is made up of various regions with independent definitions, suggesting that Asia is more than just a collection of places.",
      "article": {
        "url": "http://en.wikipedia.org/?curid=1318227",
        "page_url": "http://en.wikipedia.org/?curid=1318227",
        "section_url": "http://en.wikipedia.org/?curid=1318227#Lead_Section",
        "title": "Geography of Asia",
        "section": "Lead Section",
        "snippet": "The area of Asia is not the sum of the areas of each of its regions, which have been defined independently of the whole.",
        "references": 23,
        "contributors": 500,
        "last_updated": "2024-01-14 17:48"
      }
    },
    "error": null
  },
  {
    "selection": "Edge of Tomorrow was released in Portugal.",
    "result": {
      "result": "incorrect",
      "explanation": "The text does not provide information about the release of Edge of Tomorrow in Portugal.",
      "article": {
        "url": "http://en.wikipedia.org/?curid=37098299",
        "page_url": "http://en.wikipedia.org/?curid=37098299",
        "section_url": "http://en.wikipedia.org/?curid=37098299#Box_office_forecast",
        "title": "Edge of Tomorrow",
        "section": "Box office forecast",
        "snippet": "movie industry.\"\n\nIn the week prior to the release of Edge of Tomorrow in North America, its estimated opening-weekend gross increased from the  range to .",
        "references": 291,
        "contributors": 1231,
        "last_updated": "2024-03-17 03:30"
      }
    },
    "error": null
  },
  {
    "selection": "Her was given a wide release on January 10, 2014.",
    "result": {
      "result": "correct",
      "explanation": "The statement accurately reflects the information provided in the text.",
      "article": {
        "url": "http://en.wikipedia.org/?curid=36885907",
        "page_url": "http://en.wikipedia.org/?curid=36885907",
        "section_url": "http://en.wikipedia.org/?curid=36885907#Release",
        "title": "Her (film)",
        "section": "Release",
        "snippet": "was set to have a limited release in North America on November 20, 2013, through Warner Bros. Pictures. It was later pushed back to a limited December 18, 2013 release, with a January 10, 2014 wide release in order to accommodate an awards campaign.",
        "references": 153,
        "contributors": 792,
        "last_updated": "2024-03-10 02:20"
      }
    },
    "error": null
  },
  {
    "selection": "Sally Field was an actress.",
    "result": {
      "result": "correct",
      "explanation": "The quote confirms that Sally Field was indeed an actress.",
      "article": {
        "url": "http://en.wikipedia.org/?curid=240361",
        "page_url": "http://en.wikipedia.org/?curid=240361",
        "section_url": "http://en.wikipedia.org/?curid=240361#Lead_Section",
        "title": "Sally Field",
        "section": "Lead Section",
        "snippet": "e\nSally Field was born on November 6, 1946, in Pasadena, California, to Margaret Field (n\u00e9e Morlan), an actress, and Richard Dryden Field, who served in the Army during World War II.",
        "references": 147,
        "contributors": 1425,
        "last_updated": "2024-03-13 23:41"
      }
    },
    "error": null
  },
  {
    "selection": "Poppy is a Tennessean.",
    "result": {
      "result": "correct",
      "explanation": "The statement is correct as Poppy moved to Nashville, Tennessee at age 14.",
      "article": {
        "url": "http://en.wikipedia.org/?curid=50931261",
        "page_url": "http://en.wikipedia.org/?curid=50931261",
        "section_url": "http://en.wikipedia.org/?curid=50931261#Lead_Section",
        "title": "Poppy (singer)",
        "section": "Lead Section",
        "snippet": "Moriah Rose Pereira was born in Boston, Massachusetts, on January 1, 1995.  She moved with her family to Nashville, Tennessee at age 14.",
        "references": 300,
        "contributors": 1055,
        "last_updated": "2024-03-12 20:55"
      }
    },
    "error": null
  },
  {
    "selection": "Moana is a 2016 novel.",
    "result": {
      "result": "no_result",
      "explanation": "No matching citations found."
    },
    "error": null
  },
  {
    "selection": "Just My Luck (2006 film) features Chris Pine in a lead role.",
    "result": {
      "result": "correct",
      "explanation": "The film features Chris Pine in the lead role of Jake Hardin.",
      "article": {
        "url": "http://en.wikipedia.org/?curid=1663320",
        "page_url": "http://en.wikipedia.org/?curid=1663320",
        "section_url": "http://en.wikipedia.org/?curid=1663320#Cast",
        "title": "Just My Luck (2006 film)",
        "section": "Cast",
        "snippet": "Chris Pine as Jake Hardin",
        "references": 16,
        "contributors": 490,
        "last_updated": "2024-03-10 00:33"
      }
    },
    "error": null
  },
  {
    "selection": "Maria Sharapova tested positive for a substance that has been banned by the president.",
    "result": {
      "result": "partially_correct",
      "explanation": "The substance was banned by the International Tennis Federation, not the president.",
      "article": {
        "url": "http://en.wikipedia.org/?curid=58397322",
        "page_url": "http://en.wikipedia.org/?curid=58397322",
        "section_url": "http://en.wikipedia.org/?curid=58397322#Maria_Sharapova_(2016)",
        "title": "Doping in tennis",
        "section": "Maria Sharapova (2016)",
        "snippet": "On 1 January 2016, the drug was placed on the International Tennis Federation's banned substance list as it was ruled to have performance-enhancing effects.",
        "references": 57,
        "contributors": 34,
        "last_updated": "2024-03-03 16:29"
      }
    },
    "error": null
  },
  {
    "selection": "Justin Bieber released at least four studio albums.",
    "result": {
      "result": "correct",
      "explanation": "The information provided confirms that Justin Bieber has released at least four studio albums.",
      "article": {
        "url": "http://en.wikipedia.org/?curid=26023649",
        "page_url": "http://en.wikipedia.org/?curid=26023649",
        "section_url": "http://en.wikipedia.org/?curid=26023649#Lead_Section",
        "title": "Justin Bieber discography",
        "section": "Lead Section",
        "snippet": "My World 2.0 Released: March 19, 2010\n Label: Island, Teen Island, RBMG, Schoolboy\n Formats: CD, LP, digital download, streaming 1  1  7  4  7  4  1  17  3  1 UK: 827,000\n US: 3,400,000 MC: 3\u00d7 Platinum\n ARIA: 3\u00d7 Platinum\n BPI: Silver\n NVPI: Platinum\n RIAA: 4\u00d7 Platinum\n RMNZ: 2\u00d7 Platinum Under the Mistletoe Released: November 1, 2011\n Label: Island, RBMG, Schoolboy\n Formats: CD, digital download 1  6  2  14  21  6  7  5  13  1 US: 1,600,000 MC: 3\u00d7 Platinum\n ARIA: Platinum\n BPI: Gold\n GLF: Gold\n IFPI DEN: 3\u00d7 Platinum\n RIAA: 2\u00d7 Platinum\n RMNZ: Platinum Believe Released: June 15, 2012\n Label: Island, RBMG, Schoolboy\n Formats: CD, LP, digital download 1  1  1  3  3  2  1  1  1  1 UK: 249,000\n US: 1,700,000 MC: 2\u00d7 Platinum\n ARIA: 2\u00d7 Platinum\n BPI: Gold\n BVMI: Gold\n GLF: Platinum\n IFPI DEN: 3\u00d7 Platinum\n RIAA: 3\u00d7 Platinum\n RMNZ: Gold Purpose Released: November 13, 2015\n Label: Def Jam, RBMG, Schoolboy\n Formats: CD, CD+DVD, digital download, LP, cassette 1  1  1  8  3  1  1  1  2  1 CAN: 227,000\n UK: 1,330,000\n US: 1,900,000 MC: 4\u00d7 Platinum\n ARIA: 5\u00d7 Platinum\n BPI: 4\u00d7 Platinum\n BVMI: Gold\n GLF: 3\u00d7 Platinum\n IFPI DEN: 10\u00d7 Platinum\n RIAA: 6\u00d7 Platinum\n RMNZ: 2\u00d7 Platinum Changes Released: February 14, 2020\n Label: Def Jam, RBMG, Schoolboy\n Formats: CD, digital download, streaming 1  2  3  9  4  1  2  1  1  1 WW: 1,200,000\n CAN: 36,000\n US: 205,000\n UK: 71,824 MC: Gold\n BPI: Gold\n IFPI DEN: Platinum\n RIAA: Platinum\n RMNZ: Gold Justice Released: March 19, 2021\n Label: Def Jam, RBMG, Schoolboy\n Formats: CD, digital download, streaming 1  1  1  8  4  1  1  1  2  1 WW: 1,180,000\n CAN: 8,000\n US: 147,000 MC: 3\u00d7 Platinum\n ARIA: 2\u00d7 Platinum\n BPI: Gold\n GLF: Gold\n IFPI DEN: 4\u00d7 Platinum\n RIAA: 2\u00d7 Platinum\n RMNZ: 2\u00d7 Platinum\n SNEP: Platinum",
        "references": 424,
        "contributors": 2091,
        "last_updated": "2024-03-09 19:49"
      }
    },
    "error": null
  },
  {
    "selection": "Miyu Irino is a Voice contestant.",
    "result": {
      "result": "no_result",
      "explanation": "No matching citations found."
    },
    "error": null
  },
  {
    "selection": "100 Greatest of All Time first premiered on the Tennis Channel.",
    "result": {
      "result": "incorrect",
      "explanation": "The text does not mention that the '100 Greatest of All Time' list first premiered on the Tennis Channel.",
      "article": {
        "url": "http://en.wikipedia.org/?curid=35191146",
        "page_url": "http://en.wikipedia.org/?curid=35191146",
        "section_url": "http://en.wikipedia.org/?curid=35191146#Lead_Section",
        "title": "100 Greatest of All Time",
        "section": "Lead Section",
        "snippet": "An international panel of tennis experts determined this ranking of 62 men and 38 women.",
        "references": 2,
        "contributors": 429,
        "last_updated": "2024-02-04 16:17"
      }
    },
    "error": null
  },
  {
    "selection": "Chris O'Dowd has starred only in films.",
    "result": {
      "result": "incorrect",
      "explanation": "Chris O'Dowd has starred in television shows as well, not just films.",
      "article": {
        "url": "http://en.wikipedia.org/?curid=4218115",
        "page_url": "http://en.wikipedia.org/?curid=4218115",
        "section_url": "http://en.wikipedia.org/?curid=4218115#Career",
        "title": "Chris O'Dowd",
        "section": "Career",
        "snippet": "2\nO'Dowd starred in the United Kingdom in Channel 4's comedy The IT Crowd, BBC Two's Roman's Empire, Red Cap, and the award-winning documentary-drama The Year London Blew Up. He has also appeared on Irish television, having starred in the RT\u00c9 One drama The Clinic and the drama Showbands alongside Kerry Katona.",
        "references": 59,
        "contributors": 850,
        "last_updated": "2024-03-16 16:06"
      }
    },
    "error": null
  },
  {
    "selection": "Jonathan Hensleigh directed Jumanji.",
    "result": {
      "result": "incorrect",
      "explanation": "There is no mention of Jonathan Hensleigh directing Jumanji in the provided text.",
      "article": {
        "url": "http://en.wikipedia.org/?curid=3257815",
        "page_url": "http://en.wikipedia.org/?curid=3257815",
        "section_url": "http://en.wikipedia.org/?curid=3257815#Movie_career",
        "title": "Jonathan Hensleigh",
        "section": "Movie career",
        "snippet": "Hensleigh made his debut as a director with The Punisher in 2004, with the assistance of his wife, veteran Hollywood producer Gale Anne Hurd. He co-wrote the script with Michael France, based on the Marvel Comics character The Punisher.",
        "references": 25,
        "contributors": 146,
        "last_updated": "2024-01-18 14:14"
      }
    },
    "error": null
  },
  {
    "selection": "Dwayne Johnson was born in 1972.",
    "result": {
      "result": "correct",
      "explanation": "The statement is supported by the provided source.",
      "article": {
        "url": "http://en.wikipedia.org/?curid=156126",
        "page_url": "http://en.wikipedia.org/?curid=156126",
        "section_url": "http://en.wikipedia.org/?curid=156126#Lead_Section",
        "title": "Dwayne Johnson",
        "section": "Lead Section",
        "snippet": "Johnson was born in Hayward, California, on May 2, 1972, the son of Mataniufeagaimaleata \"Ata\" Fitisemanu (n\u00e9e Maivia) and former professional wrestler Rocky Johnson (born Wayde Douglas Bowles).",
        "references": 614,
        "contributors": 7248,
        "last_updated": "2024-03-18 20:09"
      }
    },
    "error": null
  },
  {
    "selection": "Stanley Kubrick is not a director.",
    "result": {
      "result": "incorrect",
      "explanation": "There are multiple sources confirming that Stanley Kubrick was indeed a director, as evidenced by his filmography and numerous tributes and exhibitions dedicated to his work.",
      "article": {
        "url": "http://en.wikipedia.org/?curid=26683",
        "page_url": "http://en.wikipedia.org/?curid=26683",
        "section_url": "http://en.wikipedia.org/?curid=26683#Lead_Section",
        "title": "Stanley Kubrick",
        "section": "Lead Section",
        "snippet": "Kubrick attended William Howard Taft High School from 1941 to 1945. He joined the school's photography club, which permitted him to photograph the school's events in their magazine.",
        "references": 267,
        "contributors": 3371,
        "last_updated": "2024-03-18 18:36"
      }
    },
    "error": null
  },
  {
    "selection": "Faith Evans is a person.",
    "result": {
      "result": "correct",
      "explanation": "The quote confirms that Faith Evans is a person, providing details about her birth and family background.",
      "article": {
        "url": "http://en.wikipedia.org/?curid=368204",
        "page_url": "http://en.wikipedia.org/?curid=368204",
        "section_url": "http://en.wikipedia.org/?curid=368204#Lead_Section",
        "title": "Faith Evans",
        "section": "Lead Section",
        "snippet": "Evans was born on June 10, 1973, in Lakeland, Florida, to an African American mother, Helene Evans, a professional singer.",
        "references": 107,
        "contributors": 1452,
        "last_updated": "2024-03-13 06:19"
      }
    },
    "error": null
  },
  {
    "selection": "There was a musician in the Grand Ole Pry.",
    "result": {
      "result": "correct",
      "explanation": "The quote mentions musicians like Uncle Dave Macon who was a Tennessee banjo player and became the first real star of the Grand Ole Opry.",
      "article": {
        "url": "http://en.wikipedia.org/?curid=60589",
        "page_url": "http://en.wikipedia.org/?curid=60589",
        "section_url": "http://en.wikipedia.org/?curid=60589#Beginnings",
        "title": "Grand Ole Opry",
        "section": "Beginnings",
        "snippet": "Some of the bands regularly on the show during its early days included Bill Monroe, the Possum Hunters (with Humphrey Bate), the Fruit Jar Drinkers with Uncle Dave Macon, the Crook Brothers, the Binkley Brothers' Dixie Clodhoppers, Sid Harkreader, DeFord Bailey, Fiddlin' Arthur Smith, and the Gully Jumpers.",
        "references": 95,
        "contributors": 675,
        "last_updated": "2024-03-12 07:26"
      }
    },
    "error": null
  },
  {
    "selection": "Islam does not have any followers.",
    "result": {
      "result": "incorrect",
      "explanation": "The term 'Muslim' refers to a follower of Islam, meaning 'submitter to God' or 'one who surrenders to God'.",
      "article": {
        "url": "http://en.wikipedia.org/?curid=6037917",
        "page_url": "http://en.wikipedia.org/?curid=6037917",
        "section_url": "http://en.wikipedia.org/?curid=6037917#Lead_Section",
        "title": "Islam",
        "section": "Lead Section",
        "snippet": "A Muslim (), the word for a follower of Islam,\"Muslim.\" Lexico. UK: Oxford University Press. 2020. is the active participle of the same verb form, and means \"submitter (to God)\" or \"one who surrenders (to God)\".",
        "references": 544,
        "contributors": 5850,
        "last_updated": "2024-03-18 16:30"
      }
    },
    "error": null
  },
  {
    "selection": "The United Kingdom is the 21st-most populous city.",
    "result": {
      "result": "incorrect",
      "explanation": "The claim is incorrect as the United Kingdom is a country, not a city, and is not ranked as the 21st-most populous country.",
      "article": {
        "url": "http://en.wikipedia.org/?curid=69058",
        "page_url": "http://en.wikipedia.org/?curid=69058",
        "section_url": "http://en.wikipedia.org/?curid=69058#Lead_Section",
        "title": "List of countries and dependencies by population",
        "section": "Lead Section",
        "snippet": "Areas that form integral parts of sovereign states, such as the countries of the United Kingdom, are counted as part of the sovereign states concerned.",
        "references": 439,
        "contributors": 8377,
        "last_updated": "2024-03-17 17:11"
      }
    },
    "error": null
  },
  {
    "selection": "Michael Jordan never played basketball.",
    "result": {
      "result": "incorrect",
      "explanation": "Michael Jordan did play basketball during his high school career.",
      "article": {
        "url": "http://en.wikipedia.org/?curid=20455",
        "page_url": "http://en.wikipedia.org/?curid=20455",
        "section_url": "http://en.wikipedia.org/?curid=20455#Lead_Section",
        "title": "Michael Jordan",
        "section": "Lead Section",
        "snippet": "He attended Emsley A. Laney High School in Wilmington, where he highlighted his athletic career by playing basketball, baseball, and football.",
        "references": 673,
        "contributors": 4571,
        "last_updated": "2024-03-16 14:20"
      }
    },
    "error": null
  },
  {
    "selection": "The capital city of Austria is Vienna.",
    "result": {
      "result": "correct",
      "explanation": "The text clearly states that Vienna became the capital of the Austrian Empire in 1804.",
      "article": {
        "url": "http://en.wikipedia.org/?curid=55866",
        "page_url": "http://en.wikipedia.org/?curid=55866",
        "section_url": "http://en.wikipedia.org/?curid=55866#Austrian_Empire_and_the_early_20th_century",
        "title": "Vienna",
        "section": "Austrian Empire and the early 20th century",
        "snippet": "In 1804, during the Napoleonic Wars, Vienna became the capital of the newly formed Austrian Empire.",
        "references": 326,
        "contributors": 3095,
        "last_updated": "2024-03-18 22:42"
      }
    },
    "error": null
  },
  {
    "selection": "The Miami Marlins are a team that plays baseball.",
    "result": {
      "result": "correct",
      "explanation": "The Miami Marlins were established in 1993 and have played baseball at Joe Robbie Stadium, now known as LoanDepot Park.",
      "article": {
        "url": "http://en.wikipedia.org/?curid=19502495",
        "page_url": "http://en.wikipedia.org/?curid=19502495",
        "section_url": "http://en.wikipedia.org/?curid=19502495#Lead_Section",
        "title": "LoanDepot Park",
        "section": "Lead Section",
        "snippet": "Joe Robbie Stadium was built in 1987 as home to the Miami Dolphins of the National Football League (NFL), and was designed as a multi-purpose stadium built primarily for football, but its design also accommodated baseball and soccer. Dolphins founder Joe Robbie believed it was a foregone conclusion that MLB would come to South Florida, so he wanted the stadium designed to make any necessary renovations for baseball as seamless as possible. The Marlins arrived in 1993 and during their time at the stadium, the Marlins drew more than 3 million people in their inaugural season and also won two World Series titles, in 1997 and 2003.",
        "references": 90,
        "contributors": 698,
        "last_updated": "2024-01-01 07:03"
      }
    },
    "error": null
  },
  {
    "selection": "Birth of the Dragon comes out in summer 2017.",
    "result": {
      "result": "incorrect",
      "explanation": "The movie was released in August 2016, not 2017.",
      "article": {
        "url": "http://en.wikipedia.org/?curid=47830506",
        "page_url": "http://en.wikipedia.org/?curid=47830506",
        "section_url": "http://en.wikipedia.org/?curid=47830506#Box_office",
        "title": "Birth of the Dragon",
        "section": "Box office",
        "snippet": "In North America, Birth of the Dragon was released on August 25, 2017, alongside All Saints and Leap!, and was projected to gross around $3 million from 1,618 theaters in its opening weekend.",
        "references": 26,
        "contributors": 117,
        "last_updated": "2024-02-28 19:02"
      }
    },
    "error": null
  },
  {
    "selection": "Emily Ratajkowski was in a commercial for an upscale car brand during a Super Bowl.",
    "result": {
      "result": "incorrect",
      "explanation": "There is no mention of Emily Ratajkowski or an upscale car brand in the provided text passages.",
      "article": {
        "url": "http://en.wikipedia.org/?curid=26114145",
        "page_url": "http://en.wikipedia.org/?curid=26114145",
        "section_url": "http://en.wikipedia.org/?curid=26114145#1970_(IV)",
        "title": "List of Super Bowl commercials",
        "section": "1970 (IV)",
        "snippet": "her. Everything about this is describ",
        "references": 871,
        "contributors": 463,
        "last_updated": "2024-03-11 00:46"
      }
    },
    "error": null
  },
  {
    "selection": "Judi Dench is an actress.",
    "result": {
      "result": "correct",
      "explanation": "The quote confirms that Judi Dench is indeed an actress and has won an Academy Award for her acting work.",
      "article": {
        "url": "http://en.wikipedia.org/?curid=85432",
        "page_url": "http://en.wikipedia.org/?curid=85432",
        "section_url": "http://en.wikipedia.org/?curid=85432#Awards_and_honours",
        "title": "Judi Dench",
        "section": "Awards and honours",
        "snippet": "Among her numerous accolades for her acting work, Dench has won an Academy Award for Best Supporting Actress for her role as Queen Elizabeth I in the romantic comedy Shakespeare in Love (1998).",
        "references": 270,
        "contributors": 1968,
        "last_updated": "2024-03-18 15:36"
      }
    },
    "error": null
  },
  {
    "selection": "Liv Tyler performed in a television series.",
    "result": {
      "result": "correct",
      "explanation": "Liv Tyler appeared in the HBO television series The Leftovers from 2014 to 2017.",
      "article": {
        "url": "http://en.wikipedia.org/?curid=18589061",
        "page_url": "http://en.wikipedia.org/?curid=18589061",
        "section_url": "http://en.wikipedia.org/?curid=18589061#2008\u2013present:_Box_office_hits_and_''The_Leftovers''",
        "title": "Liv Tyler",
        "section": "2008\u2013present: Box office hits and ''The Leftovers''",
        "snippet": "In June 2014, Tyler began appearing as a regular in the HBO television series The Leftovers. The series ended after three seasons in 2017.",
        "references": 235,
        "contributors": 1477,
        "last_updated": "2024-03-11 02:40"
      }
    },
    "error": null
  },
  {
    "selection": "Lil Wayne has kept his albums entirely to himself.",
    "result": {
      "result": "incorrect",
      "explanation": "Lil Wayne has released albums in collaboration with other artists, such as Birdman, as seen in the album 'Like Father, Like Son'.",
      "article": {
        "url": "http://en.wikipedia.org/?curid=10391001",
        "page_url": "http://en.wikipedia.org/?curid=10391001",
        "section_url": "http://en.wikipedia.org/?curid=10391001#Lead_Section",
        "title": "Lil Wayne albums discography",
        "section": "Lead Section",
        "snippet": "Like Father, Like Son(with Birdman) \n Released: October 31, 2006",
        "references": 106,
        "contributors": 2312,
        "last_updated": "2024-01-23 18:41"
      }
    },
    "error": null
  },
  {
    "selection": "The Wachowskis wrote The Matrix.",
    "result": {
      "result": "correct",
      "explanation": "The claim is correct as per the provided source.",
      "article": {
        "url": "http://en.wikipedia.org/?curid=376228",
        "page_url": "http://en.wikipedia.org/?curid=376228",
        "section_url": "http://en.wikipedia.org/?curid=376228#Animation",
        "title": "The Matrix (franchise)",
        "section": "Animation",
        "snippet": "he Wachowskis conceived of and oversaw the process, and they wrote four of the segments themselves, although they were given to other directors to execute.",
        "references": 227,
        "contributors": 1540,
        "last_updated": "2024-03-01 16:29"
      }
    },
    "error": null
  },
  {
    "selection": "Sleeping Beauty premiered in May 2011.",
    "result": {
      "result": "no_result",
      "explanation": "No matching citations found."
    },
    "error": null
  },
  {
    "selection": "Beauty Shop is an original work.",
    "result": {
      "result": "no_result",
      "explanation": "No matching citations found."
    },
    "error": null
  },
  {
    "selection": "Philadelphia contains 67 National Historic Landmarks.",
    "result": {
      "result": "incorrect",
      "explanation": "The quote does not provide information about the number of National Historic Landmarks in Philadelphia.",
      "article": {
        "url": "http://en.wikipedia.org/?curid=15023927",
        "page_url": "http://en.wikipedia.org/?curid=15023927",
        "section_url": "http://en.wikipedia.org/?curid=15023927#Lead_Section",
        "title": "List of National Historic Landmarks in Philadelphia",
        "section": "Lead Section",
        "snippet": "Current listings\n\n|}",
        "references": 139,
        "contributors": 60,
        "last_updated": "2024-02-26 16:29"
      }
    },
    "error": null
  },
  {
    "selection": "Eddie Redmayne appeared in a film.",
    "result": {
      "result": "incorrect",
      "explanation": "Eddie Redmayne did not appear in the film 'The Parting Glass'. The film features Ed Asner in the role of Tommy.",
      "article": {
        "url": "http://en.wikipedia.org/?curid=38045015",
        "page_url": "http://en.wikipedia.org/?curid=38045015",
        "section_url": "http://en.wikipedia.org/?curid=38045015#Lead_Section",
        "title": "Ed Asner filmography",
        "section": "Lead Section",
        "snippet": "The Parting GlassTommyW",
        "references": 2,
        "contributors": 250,
        "last_updated": "2024-02-21 19:15"
      }
    },
    "error": null
  },
  {
    "selection": "Amelia Earhart was Canadian.",
    "result": {
      "result": "incorrect",
      "explanation": "The Great Canadian Theatre Company hosted a play about Amelia Earhart, but she was not Canadian. She was American.",
      "article": {
        "url": "http://en.wikipedia.org/?curid=85234",
        "page_url": "http://en.wikipedia.org/?curid=85234",
        "section_url": "http://en.wikipedia.org/?curid=85234#In_popular_culture",
        "title": "Amelia Earhart",
        "section": "In popular culture",
        "snippet": "In 2011, the Great Canadian Theatre Company hosted a musical play titled Amelia: The Girl Who Wants To Fly.. Great Canadian Theatre Company. Retrieved: October 6, 2011.",
        "references": 403,
        "contributors": 2433,
        "last_updated": "2024-03-18 16:07"
      }
    },
    "error": null
  },
  {
    "selection": "The Dodecanese are in the southeastern Tyrrhenian Sea.",
    "result": {
      "result": "incorrect",
      "explanation": "The Dodecanese islands are actually located in the southeastern Aegean Sea, not the Tyrrhenian Sea.",
      "article": {
        "url": "http://en.wikipedia.org/?curid=302628",
        "page_url": "http://en.wikipedia.org/?curid=302628",
        "section_url": "http://en.wikipedia.org/?curid=302628#Climate",
        "title": "Dodecanese",
        "section": "Climate",
        "snippet": "imate\nMost of the Dodecanese have a hot-summer Mediterranean climate (Csa in the K\u00f6ppen climate classification) while Karpathos, Kasos and Nisyros have a hot semi-arid climate (K\u00f6ppen climate classification: BSh) with mild winters and hot summers.",
        "references": 66,
        "contributors": 389,
        "last_updated": "2024-03-07 08:18"
      }
    },
    "error": null
  },
  {
    "selection": "Death in Paradise has enjoyed high ratings and is highly acclaimed.",
    "result": {
      "result": "partially_correct",
      "explanation": "The show has been well-received, but the passage does not specifically mention high ratings",
      "article": {
        "url": "http://en.wikipedia.org/?curid=33529086",
        "page_url": "http://en.wikipedia.org/?curid=33529086",
        "section_url": "http://en.wikipedia.org/?curid=33529086#Lead_Section",
        "title": "Death in Paradise (TV series)",
        "section": "Lead Section",
        "snippet": "Detective Inspector Richard Poole (Ben Miller) is sent from the Metropolitan Police in London to investigate the murder of a British police officer on the fictional Caribbean island of Saint Marie,",
        "references": 84,
        "contributors": 834,
        "last_updated": "2024-03-18 15:11"
      }
    },
    "error": null
  },
  {
    "selection": "London is in Greater London.",
    "result": {
      "result": "partially_correct",
      "explanation": "London is part of Greater London, but the City of London has a unique government separate from the rest of Greater London.",
      "article": {
        "url": "http://en.wikipedia.org/?curid=45367389",
        "page_url": "http://en.wikipedia.org/?curid=45367389",
        "section_url": "http://en.wikipedia.org/?curid=45367389#Local_government",
        "title": "Greater London",
        "section": "Local government",
        "snippet": "Greater London is divided into 32 London Boroughs, each governed by a London Borough council. The City of London has a unique government dating back to the 12th century and is separate from the county of Greater London, although is still part of the region served by the Greater London Authority.",
        "references": 82,
        "contributors": 950,
        "last_updated": "2024-03-10 10:31"
      }
    },
    "error": null
  },
  {
    "selection": "Equidae includes some species known only from their bones.",
    "result": {
      "result": "correct",
      "explanation": "The classification section lists several extinct species within the Equidae family that are known only from their bones.",
      "article": {
        "url": "http://en.wikipedia.org/?curid=10229",
        "page_url": "http://en.wikipedia.org/?curid=10229",
        "section_url": "http://en.wikipedia.org/?curid=10229#Classification",
        "title": "Equidae",
        "section": "Classification",
        "snippet": "Equidae, Perissodactyla includes four species of tapir in",
        "references": 64,
        "contributors": 359,
        "last_updated": "2024-02-09 05:27"
      }
    },
    "error": null
  },
  {
    "selection": "The Eagles were active in the 1970s.",
    "result": {
      "result": "incorrect",
      "explanation": "The statement is incorrect as it refers to the period after the Eagles broke up, not during their active years in the 1970s.",
      "article": {
        "url": "http://en.wikipedia.org/?curid=90785",
        "page_url": "http://en.wikipedia.org/?curid=90785",
        "section_url": "http://en.wikipedia.org/?curid=90785#Lead_Section",
        "title": "Eagles (band)",
        "section": "Lead Section",
        "snippet": "After the Eagles broke up, the former members pursued solo careers.",
        "references": 145,
        "contributors": 2829,
        "last_updated": "2024-02-20 05:03"
      }
    },
    "error": null
  },
  {
    "selection": "The 2013 NBA draft was planned at Barclays Center in Brooklyn.",
    "result": {
      "result": "incorrect",
      "explanation": "The quote does not provide information about the location of the 2013 NBA draft.",
      "article": {
        "url": "http://en.wikipedia.org/?curid=38000871",
        "page_url": "http://en.wikipedia.org/?curid=38000871",
        "section_url": "http://en.wikipedia.org/?curid=38000871#Draft_lottery",
        "title": "2013 NBA draft",
        "section": "Draft lottery",
        "snippet": "The first 14 picks in the draft belong to teams that miss the playoffs; the order was determined through a lottery. The lottery determined the three teams that will obtain the first three picks on the draft.",
        "references": 87,
        "contributors": 487,
        "last_updated": "2024-03-10 10:03"
      }
    },
    "error": null
  },
  {
    "selection": "Alex Rodriguez was suspended for 500 games.",
    "result": {
      "result": "incorrect",
      "explanation": "The suspension was initially for 211 games but was later reduced to 162 games after an appeal.",
      "article": {
        "url": "http://en.wikipedia.org/?curid=39597386",
        "page_url": "http://en.wikipedia.org/?curid=39597386",
        "section_url": "http://en.wikipedia.org/?curid=39597386#Player_suspensions",
        "title": "Biogenesis scandal",
        "section": "Player suspensions",
        "snippet": "On August 5, 2013, Alex Rodriguez was suspended through the 2014 season (211 games at the time of the decision), but was allowed to play in 2013 pending his appeal of that decision. An arbitrator later upheld the suspension in January 2014, after being allowed to play in the 49 games between the decision and the hearing, technically reducing the suspension to 162 games, representing the entire 2014 regular season and postseason.",
        "references": 24,
        "contributors": 99,
        "last_updated": "2024-03-13 17:13"
      }
    },
    "error": null
  },
  {
    "selection": "Mickey Rooney was in a movie.",
    "result": {
      "result": "partially_correct",
      "explanation": "The quote mentions Mickey Rooney's nomination for an Academy Award, which is related to his involvement in movies, but it does not specifically mention a movie title.",
      "article": {
        "url": "http://en.wikipedia.org/?curid=44788090",
        "page_url": "http://en.wikipedia.org/?curid=44788090",
        "section_url": "http://en.wikipedia.org/?curid=44788090#Lead_Section",
        "title": "Mickey Rooney filmography",
        "section": "Lead Section",
        "snippet": "At age of only 19 years old, Mickey Rooney became the second-youngest Academy Award Best Actor nominee.",
        "references": 10,
        "contributors": 103,
        "last_updated": "2023-12-20 14:37"
      }
    },
    "error": null
  },
  {
    "selection": "Mission: Impossible 6 is written by a person.",
    "result": {
      "result": "correct",
      "explanation": "The screenplay for Mission: Impossible \\\\u2013 Fallout was written by Christopher McQuarrie.",
      "article": {
        "url": "http://en.wikipedia.org/?curid=47080521",
        "page_url": "http://en.wikipedia.org/?curid=47080521",
        "section_url": "http://en.wikipedia.org/?curid=47080521#Writing",
        "title": "Mission: Impossible \u2013 Fallout",
        "section": "Writing",
        "snippet": "22\nMcQuarrie wrote the screenplay for Mission: Impossible \u2013 Fallout but collaborated with Cruise on developing ideas they wanted to explore through the narrative.",
        "references": 405,
        "contributors": 1303,
        "last_updated": "2024-03-18 22:51"
      }
    },
    "error": null
  },
  {
    "selection": "Believe is a work.",
    "result": {
      "result": "incorrect",
      "explanation": "The statement is incorrect as the quote is about the album 'Make Believe' and not 'Believe'.",
      "article": {
        "url": "http://en.wikipedia.org/?curid=1595551",
        "page_url": "http://en.wikipedia.org/?curid=1595551",
        "section_url": "http://en.wikipedia.org/?curid=1595551#Lead_Section",
        "title": "Make Believe (Weezer album)",
        "section": "Lead Section",
        "snippet": "Make Believe marks a return to Cuomo's more personal songwriting style after taking a more distant approach on the previous two albums.",
        "references": 68,
        "contributors": 367,
        "last_updated": "2024-03-10 04:26"
      }
    },
    "error": null
  },
  {
    "selection": "Russ is a rapper.",
    "result": {
      "result": "correct",
      "explanation": "The passage clearly states that Russ, whose full name is Russell James Vitale, was born in New Jersey and started writing raps at a young age, indicating that he is a rapper.",
      "article": {
        "url": "http://en.wikipedia.org/?curid=51286436",
        "page_url": "http://en.wikipedia.org/?curid=51286436",
        "section_url": "http://en.wikipedia.org/?curid=51286436#Lead_Section",
        "title": "Russ (rapper)",
        "section": "Lead Section",
        "snippet": "Russell James Vitale was born on September 26, 1992, in Secaucus, New Jersey. He is of Sicilian descent. Vitale was born into an American family with Sicilian ancestry, which included him and three other siblings. He lived in North Carolina and Kentucky in his childhood due to his father having to constantly relocate due to his career, before his family found a permanent home during his late teenage years in Atlanta, Georgia. Vitale was taught to play guitar by his father, and over the years gradually learned how to play several instruments. He started writing raps in his notebook at 7 years old. He started making beats when he was 14 and was initially producing with his friend Bugus. He recorded his first song at 18 years old and continued making beats and producing songs in the basement of Colm Dillane's KidSuper.",
        "references": 71,
        "contributors": 667,
        "last_updated": "2024-02-22 22:10"
      }
    },
    "error": null
  },
  {
    "selection": "Eliza Dushka is incapable of having any roles in films.",
    "result": {
      "result": "incorrect",
      "explanation": "There are multiple sources confirming Eliza Dushku's roles in various films.",
      "article": {
        "url": "http://en.wikipedia.org/?curid=236447",
        "page_url": "http://en.wikipedia.org/?curid=236447",
        "section_url": "http://en.wikipedia.org/?curid=236447#2003\u20132008:_''Tru_Calling''_and_subsequent_roles",
        "title": "Eliza Dushku",
        "section": "2003\u20132008: ''Tru Calling'' and subsequent roles",
        "snippet": "Dushku starred in the horror film Wrong Turn and The Kiss, an independent comedy-drama.",
        "references": 174,
        "contributors": 1648,
        "last_updated": "2024-03-09 06:42"
      }
    },
    "error": null
  },
  {
    "selection": "The Weeknd only released an album in 2011.",
    "result": {
      "result": "incorrect",
      "explanation": "The claim is incorrect as The Weeknd released multiple albums after 2011, including 'Kiss Land', 'Beauty Behind the Madness', 'Starboy', 'After Hours', and 'Dawn FM'.",
      "article": {
        "url": "http://en.wikipedia.org/?curid=33300560",
        "page_url": "http://en.wikipedia.org/?curid=33300560",
        "section_url": "http://en.wikipedia.org/?curid=33300560#Lead_Section",
        "title": "The Weeknd discography",
        "section": "Lead Section",
        "snippet": "House of Balloons Released: March 21, 2011",
        "references": 340,
        "contributors": 1111,
        "last_updated": "2024-03-18 07:45"
      }
    },
    "error": null
  },
  {
    "selection": "Michael J. Fox had a virus.",
    "result": {
      "result": "no_result",
      "explanation": "No matching citations found."
    },
    "error": null
  },
  {
    "selection": "Felicity Jones appeared in a 2014 British biographical romantic drama film.",
    "result": {
      "result": "correct",
      "explanation": "The claim is correct as Felicity Jones appeared in the 2014 British biographical romantic drama film 'The Theory of Everything'.",
      "article": {
        "url": "http://en.wikipedia.org/?curid=4586225",
        "page_url": "http://en.wikipedia.org/?curid=4586225",
        "section_url": "http://en.wikipedia.org/?curid=4586225#Career",
        "title": "Felicity Jones",
        "section": "Career",
        "snippet": "In 2014, Jones portrayed Jane Wilde Hawking in the film The Theory of Everything, a biopic charting the life and love between Wilde Hawking and the world-renowned physicist Stephen Hawking, with Eddie Redmayne starring as Hawking.",
        "references": 157,
        "contributors": 885,
        "last_updated": "2024-03-12 10:18"
      }
    },
    "error": null
  },
  {
    "selection": "Heinrich Himmler oversaw all internal and external police of Nazi Germany.",
    "result": {
      "result": "correct",
      "explanation": "The quote confirms that Heinrich Himmler was appointed chief of all German police outside Prussia, which indicates that he oversaw all internal and external police of Nazi Germany.",
      "article": {
        "url": "http://en.wikipedia.org/?curid=13436",
        "page_url": "http://en.wikipedia.org/?curid=13436",
        "section_url": "http://en.wikipedia.org/?curid=13436#Consolidation_of_power",
        "title": "Heinrich Himmler",
        "section": "Consolidation of power",
        "snippet": ". G\u00f6ring, concerned that Diels was not ruthless enough to use the Gestapo effectively to counteract the power of the SA, handed over its control to Himmler on 20 April 1934. Also on that date, Hitler appointed Himmler chief of all German police outside Prussia. This was a radical departure from long-standing German practice that law enforcement was a state and local matter.",
        "references": 77,
        "contributors": 2530,
        "last_updated": "2024-03-18 23:44"
      }
    },
    "error": null
  },
  {
    "selection": "Hotel Hell is a TV series.",
    "result": {
      "result": "correct",
      "explanation": "The quote confirms that Hotel Hell is indeed a TV series.",
      "article": {
        "url": "http://en.wikipedia.org/?curid=34754752",
        "page_url": "http://en.wikipedia.org/?curid=34754752",
        "section_url": "http://en.wikipedia.org/?curid=34754752#Lead_Section",
        "title": "Hotel Hell",
        "section": "Lead Section",
        "snippet": "Originally scheduled to premiere on Fox on April 6, 2012, the series was first rescheduled to June 4, 2012 in order to accommodate the move of The Finder, then rescheduled to August 13, due to Ramsay's other two series, Hell's Kitchen and MasterChef, being scheduled for Monday nights during the summer.",
        "references": 74,
        "contributors": 229,
        "last_updated": "2024-02-05 05:24"
      }
    },
    "error": null
  },
  {
    "selection": "The Catalyst is a single by Linkin Park.",
    "result": {
      "result": "partially_correct",
      "explanation": "The text mentions a contest related to the single 'The Catalyst' by Linkin Park, but does not explicitly state that 'The Catalyst' is a single.",
      "article": {
        "url": "http://en.wikipedia.org/?curid=28005401",
        "page_url": "http://en.wikipedia.org/?curid=28005401",
        "section_url": "http://en.wikipedia.org/?curid=28005401#Lead_Section",
        "title": "The Catalyst",
        "section": "Lead Section",
        "snippet": "The winner of this contest was Czes\u0142aw \"NoBraiN\" Sakowski from \u015awidnica, Poland, whose remix was featured as an additional downloadable track on the Best Buy version of A Thousand Suns, and also available on Napster.",
        "references": 75,
        "contributors": 440,
        "last_updated": "2023-12-19 01:57"
      }
    },
    "error": null
  },
  {
    "selection": "Wilt Chamberlain plays basketball.",
    "result": {
      "result": "partially_correct",
      "explanation": "While Wilt Chamberlain was initially not interested in basketball, he eventually turned to the sport in seventh grade and went on to become one of the most dominant basketball players in NBA history.",
      "article": {
        "url": "http://en.wikipedia.org/?curid=255645",
        "page_url": "http://en.wikipedia.org/?curid=255645",
        "section_url": "http://en.wikipedia.org/?curid=255645#Lead_Section",
        "title": "Wilt Chamberlain",
        "section": "Lead Section",
        "snippet": "During early childhood, he was not interested in basketball, which he regarded as \"a game for sissies\".",
        "references": 308,
        "contributors": 2268,
        "last_updated": "2024-03-12 04:39"
      }
    },
    "error": null
  },
  {
    "selection": "Warren Buffett developed an interest in investing in his youth.",
    "result": {
      "result": "correct",
      "explanation": "The quote confirms that Warren Buffett had an interest in investing from a young age.",
      "article": {
        "url": "http://en.wikipedia.org/?curid=211518",
        "page_url": "http://en.wikipedia.org/?curid=211518",
        "section_url": "http://en.wikipedia.org/?curid=211518#Lead_Section",
        "title": "Warren Buffett",
        "section": "Lead Section",
        "snippet": "Buffett's interest in the stock market and investing dated back to his schoolboy days he spent in the customers' lounge of a regional stock brokerage near his father's own brokerage office.",
        "references": 449,
        "contributors": 3934,
        "last_updated": "2024-03-16 02:29"
      }
    },
    "error": null
  },
  {
    "selection": "One Russian superhero is Black Widow.",
    "result": {
      "result": "correct",
      "explanation": "The quote confirms that Black Widow is a Russian character who initially appeared as a Russian-spy antagonist.",
      "article": {
        "url": "http://en.wikipedia.org/?curid=709344",
        "page_url": "http://en.wikipedia.org/?curid=709344",
        "section_url": "http://en.wikipedia.org/?curid=709344#Lead_Section",
        "title": "Black Widow (Natasha Romanova)",
        "section": "Lead Section",
        "snippet": "The Black Widow's first appearances were as a recurring, non-costumed, Russian-spy antagonist in the feature \"Iron Man\", beginning in Tales of Suspense #52 (April 1964). Five issues later, she recruits the besotted costumed archer and later superhero Hawkeye to her cause.",
        "references": 173,
        "contributors": 1675,
        "last_updated": "2024-03-15 01:19"
      }
    },
    "error": null
  },
  {
    "selection": "Argo has at least one producer.",
    "result": {
      "result": "correct",
      "explanation": "The text mentions that Argo is based on the \"Canadian Caper\" and Chris Terrio wrote the screenplay, indicating the presence of at least one producer.",
      "article": {
        "url": "http://en.wikipedia.org/?curid=33028800",
        "page_url": "http://en.wikipedia.org/?curid=33028800",
        "section_url": "http://en.wikipedia.org/?curid=33028800#Production",
        "title": "Argo (2012 film)",
        "section": "Production",
        "snippet": "Argo is based on the \"Canadian Caper\" that took place during the Iran hostage crisis in 1979 and 1980. Chris Terrio wrote the screenplay based on Joshuah Bearman's 2007 article \"How the CIA Used a Fake Sci-Fi Flick to Rescue Americans from Tehran,\" which was published in Wired. Affleck mentioned the influences for the film, which include Costa-Gavras's work, All the President's Men, The Killing of a Chinese Bookie, and The Battle of Algiers which served as references.",
        "references": 124,
        "contributors": 1372,
        "last_updated": "2024-03-16 21:55"
      }
    },
    "error": null
  },
  {
    "selection": "Captain America: The Winter Soldier is a work.",
    "result": {
      "result": "incorrect",
      "explanation": "The statement is incorrect as it is incomplete and does not align with the content of the provided text passages.",
      "article": {
        "url": "http://en.wikipedia.org/?curid=36439749",
        "page_url": "http://en.wikipedia.org/?curid=36439749",
        "section_url": "http://en.wikipedia.org/?curid=36439749#Production",
        "title": "Captain America: The Winter Soldier",
        "section": "Production",
        "snippet": "s Captain America: The Winter Soldier, and t",
        "references": 438,
        "contributors": 1370,
        "last_updated": "2024-03-12 09:13"
      }
    },
    "error": null
  },
  {
    "selection": "Rhona Mitra acts.",
    "result": {
      "result": "correct",
      "explanation": "The quote provides evidence that Rhona Mitra is involved in acting, supporting the claim that she acts.",
      "article": {
        "url": "http://en.wikipedia.org/?curid=462070",
        "page_url": "http://en.wikipedia.org/?curid=462070",
        "section_url": "http://en.wikipedia.org/?curid=462070#Career",
        "title": "Rhona Mitra",
        "section": "Career",
        "snippet": "In 2020, Mitra starred in the science fiction film Archive as Simone. She also starred in the science fiction film Skylines as Dr Mal.",
        "references": 36,
        "contributors": 793,
        "last_updated": "2024-03-16 14:18"
      }
    },
    "error": null
  },
  {
    "selection": "Robert Redford was a guest star on a show.",
    "result": null,
    "error": "Error code: 400 - {'error': {'message': \"This model's maximum context length is 16385 tokens. However, your messages resulted in 27172 tokens. Please reduce the length of the messages.\", 'type': 'invalid_request_error', 'param': 'messages', 'code': 'context_length_exceeded'}}"
  },
  {
    "selection": "The Matrix stars Keanu Reeves as John Matrix.",
    "result": {
      "result": "incorrect",
      "explanation": "Keanu Reeves portrays the character Thomas Anderson, also known as Neo, not John Matrix, in The Matrix franchise.",
      "article": {
        "url": "http://en.wikipedia.org/?curid=16603",
        "page_url": "http://en.wikipedia.org/?curid=16603",
        "section_url": "http://en.wikipedia.org/?curid=16603#1999\u20132004:_Stardom_with_''The_Matrix''_franchise_and_comedies",
        "title": "Keanu Reeves",
        "section": "1999\u20132004: Stardom with ''The Matrix'' franchise and comedies",
        "snippet": "In 1999, Reeves starred in the critically acclaimed science fiction film The Matrix, the first installment in what would become The Matrix franchise. Reeves portrays computer programmer Thomas Anderson, a hacker using the alias \"Neo\", who discovers humanity is trapped inside a simulated reality created by intelligent machines.",
        "references": 555,
        "contributors": 2858,
        "last_updated": "2024-03-16 07:30"
      }
    },
    "error": null
  },
  {
    "selection": "Roman Reigns is a three-time born again Christian.",
    "result": {
      "result": "no_result",
      "explanation": "No matching citations found."
    },
    "error": null
  },
  {
    "selection": "Alison Brie works as an actress.",
    "result": {
      "result": "correct",
      "explanation": "The quote confirms that Alison Brie works as an actress, starting with her first television role in 2006.",
      "article": {
        "url": "http://en.wikipedia.org/?curid=24382329",
        "page_url": "http://en.wikipedia.org/?curid=24382329",
        "section_url": "http://en.wikipedia.org/?curid=24382329#Career",
        "title": "Alison Brie",
        "section": "Career",
        "snippet": "Brie began acting onstage at the Jewish Community Center in Southern California. Her first television role came in 2006 as Nina, a novice hairdresser, on the Disney Channel sitcom Hannah Montana.",
        "references": 112,
        "contributors": 913,
        "last_updated": "2024-03-17 15:40"
      }
    },
    "error": null
  }
]
